{
  "apiKey": "<<INSERT apiKey>>",
  "databaseURL": "<<INSERT databaseURL>>",
  "storageBucket": "<INSERT storageBucket>>",
  "authDomain": "<INSERT authDomain>>",
  "messagingSenderId": "<INSERT messagingSenderId>>",
  "projectId": "<INSERT projectId>>"
}